[{
  "tenant_id": "vx2116d4560ca2f49799920ce336535508b",
  "name": "Playground Story",
  "type": "incog",
  "id": "incog-default",
  "schema": {
    "Views": [{
        "id": "intro",
        "animated": true
      },
      {
        "id": "brand",
        "animated": false
      }
    ],
    "Story": [{
        "id": 0,
        "question_id": "",
        "title": "Who Am I",
        "type": "list",
        "tags": "Uber Geek,Casual Engineer,Business Nerd",
        "tags_title": "I am a...",
        "list_count": 1
      },
      {
        "id": 3,
        "title": "This playground is...",
        "question_id": "eedc1ee0-d19e-11e6-9476-e181c8513449",
        "type": "map",
        "tags": "",
        "tags_header": ""
      },
      {
        "id": 2,
        "title": "Playground tags",
        "question_id": "eedc1ee0-d19e-11e6-9476-e181c8513449",
        "type": "tags",
        "tags": "technology,user interface,profit,re-usability,free things,hardware,business,reputation,health",
        "tags_title": "TELL US A LITTLE MORE",
        "tags_prefix": "sentiment",
        "tags_subtitle": "I care most about..."
      },
      {
        "id": 3,
        "title": "",
        "question_id": "",
        "type": "exit",
        "tags": "",
        "tags_header": ""
      }
    ],
    "IntroCallToActions": [
      "How",
      "do",
      "YOU",
      "FEEL?"
    ],
    "UserNavigation": false,
    "LogoURL": "http://dev.sensation.io/assets/incog-logo.png",
    "LogoFilename": "incog-logo.png",
    "LogoThumbnailURL": "http://dev.sensation.io/assets/incog-logo-thumbnail.png",
    "LogoThumbnailFilename": "incog-logo-thumbnail.png",
    "tags_attribute_name": "sentiment",
    "Key": "",
    "KeyByValue": "default",
    "Tags": "Tags"
  }
}]
